\relax 
\providecommand\hyper@newdestlabel[2]{}
\@writefile{loa}{\addvspace {10\p@ }}
\@writefile{toc}{\contentsline {chapter}{\numberline {C}Códigos}{61}{appendix.C}\protected@file@percent }
\@writefile{lof}{\addvspace {10\p@ }}
\@writefile{lot}{\addvspace {10\p@ }}
\@writefile{lof}{\contentsline {xchapter}{Códigos}{61}{appendix.C}\protected@file@percent }
\@writefile{lot}{\contentsline {xchapter}{Códigos}{61}{appendix.C}\protected@file@percent }
\newlabel{Chap:Apendice3}{{C}{61}{Códigos}{appendix.C}{}}
\@writefile{toc}{\contentsline {section}{\numberline {C.1}Código do arduino para Controle de Tanque com Área Variável}{61}{section.C.1}\protected@file@percent }
\@setckpt{Apendice3}{
\setcounter{page}{65}
\setcounter{equation}{0}
\setcounter{enumi}{6}
\setcounter{enumii}{0}
\setcounter{enumiii}{0}
\setcounter{enumiv}{0}
\setcounter{footnote}{0}
\setcounter{mpfootnote}{0}
\setcounter{part}{0}
\setcounter{chapter}{3}
\setcounter{section}{1}
\setcounter{subsection}{0}
\setcounter{subsubsection}{0}
\setcounter{paragraph}{0}
\setcounter{subparagraph}{0}
\setcounter{figure}{0}
\setcounter{table}{0}
\setcounter{Item}{17}
\setcounter{Hfootnote}{0}
\setcounter{bookmark@seq@number}{60}
\setcounter{minexaminers}{2}
\setcounter{keywords}{4}
\setcounter{parentequation}{0}
\setcounter{ABCIaux}{0}
\setcounter{ABCImax}{0}
\setcounter{mtc}{13}
\setcounter{minitocdepth}{2}
\setcounter{ptc}{0}
\setcounter{parttocdepth}{2}
\setcounter{lstnumber}{107}
\setcounter{caption@flags}{0}
\setcounter{continuedfloat}{0}
\setcounter{subfigure}{0}
\setcounter{subtable}{0}
\setcounter{r@tfl@t}{0}
\setcounter{AM@survey}{0}
\setcounter{float@type}{16}
\setcounter{tfl@float@cnt}{1}
\setcounter{nlinenum}{0}
\setcounter{definition}{0}
\setcounter{cntcode}{0}
\setcounter{section@level}{1}
\setcounter{lstlisting}{0}
\setcounter{quadro}{0}
}
