\relax 
\providecommand\hyper@newdestlabel[2]{}
\citation{junior2019}
\citation{Elipse2012}
\citation{Siemens1999}
\citation{Martins2007}
\@writefile{loa}{\addvspace {10\p@ }}
\@writefile{toc}{\contentsline {chapter}{\numberline {1}Introdução}{1}{chapter.1}\protected@file@percent }
\@writefile{lof}{\addvspace {10\p@ }}
\@writefile{lot}{\addvspace {10\p@ }}
\@writefile{lof}{\contentsline {xchapter}{Introdução}{1}{chapter.1}\protected@file@percent }
\@writefile{lot}{\contentsline {xchapter}{Introdução}{1}{chapter.1}\protected@file@percent }
\newlabel{Chap:Introdução}{{1}{1}{Introdução}{chapter.1}{}}
\@writefile{toc}{\contentsline {section}{\numberline {1.1}Contextualização e Justificativa}{1}{section.1.1}\protected@file@percent }
\citation{junior2019}
\citation{Moraes2016}
\citation{silva2013}
\citation{MathWorks}
\citation{SHMR}
\@writefile{toc}{\contentsline {section}{\numberline {1.2}Objetivos}{3}{section.1.2}\protected@file@percent }
\@writefile{toc}{\contentsline {subsection}{\numberline {1.2.1}Objetivos Gerais}{3}{subsection.1.2.1}\protected@file@percent }
\@writefile{toc}{\contentsline {subsection}{\numberline {1.2.2}Objetivos Específicos}{3}{subsection.1.2.2}\protected@file@percent }
\@writefile{toc}{\contentsline {section}{\numberline {1.3}Estrutura do Trabalho}{3}{section.1.3}\protected@file@percent }
\@setckpt{Introducao}{
\setcounter{page}{5}
\setcounter{equation}{0}
\setcounter{enumi}{5}
\setcounter{enumii}{0}
\setcounter{enumiii}{0}
\setcounter{enumiv}{0}
\setcounter{footnote}{0}
\setcounter{mpfootnote}{0}
\setcounter{part}{0}
\setcounter{chapter}{1}
\setcounter{section}{3}
\setcounter{subsection}{0}
\setcounter{subsubsection}{0}
\setcounter{paragraph}{0}
\setcounter{subparagraph}{0}
\setcounter{figure}{0}
\setcounter{table}{0}
\setcounter{Item}{5}
\setcounter{Hfootnote}{0}
\setcounter{bookmark@seq@number}{9}
\setcounter{minexaminers}{2}
\setcounter{keywords}{4}
\setcounter{parentequation}{0}
\setcounter{ABCIaux}{0}
\setcounter{ABCImax}{0}
\setcounter{mtc}{6}
\setcounter{minitocdepth}{2}
\setcounter{ptc}{0}
\setcounter{parttocdepth}{2}
\setcounter{lstnumber}{1}
\setcounter{caption@flags}{0}
\setcounter{continuedfloat}{0}
\setcounter{subfigure}{0}
\setcounter{subtable}{0}
\setcounter{r@tfl@t}{0}
\setcounter{AM@survey}{0}
\setcounter{float@type}{16}
\setcounter{tfl@float@cnt}{1}
\setcounter{nlinenum}{0}
\setcounter{definition}{0}
\setcounter{cntcode}{0}
\setcounter{section@level}{1}
\setcounter{lstlisting}{0}
\setcounter{quadro}{0}
}
