\relax 
\providecommand\hyper@newdestlabel[2]{}
\@writefile{loa}{\addvspace {10\p@ }}
\@writefile{toc}{\contentsline {chapter}{\numberline {5}Conclusão}{43}{chapter.5}\protected@file@percent }
\@writefile{lof}{\addvspace {10\p@ }}
\@writefile{lot}{\addvspace {10\p@ }}
\@writefile{lof}{\contentsline {xchapter}{Conclusão}{43}{chapter.5}\protected@file@percent }
\@writefile{lot}{\contentsline {xchapter}{Conclusão}{43}{chapter.5}\protected@file@percent }
\@writefile{toc}{\contentsline {section}{\numberline {5.1}Possíveis aditivos}{44}{section.5.1}\protected@file@percent }
\@setckpt{Conclusao}{
\setcounter{page}{45}
\setcounter{equation}{0}
\setcounter{enumi}{5}
\setcounter{enumii}{0}
\setcounter{enumiii}{0}
\setcounter{enumiv}{0}
\setcounter{footnote}{0}
\setcounter{mpfootnote}{0}
\setcounter{part}{0}
\setcounter{chapter}{5}
\setcounter{section}{1}
\setcounter{subsection}{0}
\setcounter{subsubsection}{0}
\setcounter{paragraph}{0}
\setcounter{subparagraph}{0}
\setcounter{figure}{0}
\setcounter{table}{0}
\setcounter{Item}{16}
\setcounter{Hfootnote}{0}
\setcounter{bookmark@seq@number}{42}
\setcounter{minexaminers}{2}
\setcounter{keywords}{4}
\setcounter{parentequation}{0}
\setcounter{ABCIaux}{0}
\setcounter{ABCImax}{0}
\setcounter{mtc}{10}
\setcounter{minitocdepth}{2}
\setcounter{ptc}{0}
\setcounter{parttocdepth}{2}
\setcounter{lstnumber}{14}
\setcounter{caption@flags}{0}
\setcounter{continuedfloat}{0}
\setcounter{subfigure}{0}
\setcounter{subtable}{0}
\setcounter{r@tfl@t}{0}
\setcounter{AM@survey}{0}
\setcounter{float@type}{16}
\setcounter{tfl@float@cnt}{1}
\setcounter{nlinenum}{0}
\setcounter{definition}{0}
\setcounter{cntcode}{0}
\setcounter{section@level}{1}
\setcounter{lstlisting}{0}
\setcounter{quadro}{0}
}
